…
``` r
soundings_48657
```

    ## # A tibble: 176 x 14
    ##    pres_hpa hght_m temp_c dwpt_c relh_pct mixr_g_kg drct_deg sknt_knot thta_k thte_k thtv_k date       from_hr to_hr
    ##       <dbl>  <dbl>  <dbl>  <dbl>    <dbl>     <dbl>    <dbl>     <dbl>  <dbl>  <dbl>  <dbl> <date>     <chr>   <chr>
    ##  1    1006.    16.   24.0   23.4      96.      18.4       0.        0.   297.   350.   300. 2017-11-02 00      00   
    ##  2    1000.    70.   23.6   22.4      93.      17.4       0.        0.   297.   347.   300. 2017-11-02 00      00   
    ##  3     993.   132.   23.2   21.5      90.      16.6      NA        NA    297.   345.   300. 2017-11-02 00      00   
    ##  4     981.   238.   24.6   21.6      83.      16.9      NA        NA    299.   349.   302. 2017-11-02 00      00   
    ##  5    1005.    16.   24.2   23.6      96.      18.6     190.        1.   297.   351.   300. 2017-11-03 00      00   
    ##  6    1000.    62.   24.2   23.1      94.      18.2     210.        3.   297.   350.   301. 2017-11-03 00      00   
    ##  7     991.   141.   24.0   22.9      94.      18.1     212.        6.   298.   351.   301. 2017-11-03 00      00   
    ##  8     983.   213.   23.8   22.7      94.      18.0     213.        8.   298.   351.   302. 2017-11-03 00      00   
    ##  9     973.   302.   23.3   22.0      92.      17.4     215.       11.   299.   350.   302. 2017-11-03 00      00   
    ## 10     970.   329.   23.2   21.8      92.      17.3     215.       11.   299.   350.   302. 2017-11-03 00      00   
    ## # ... with 166 more rows
…
